%YAML 1.1
%TAG !u! tag:unity3d.com,2011:
--- !u!181963792 &2655988077585873504
Preset:
  m_ObjectHideFlags: 0
  m_CorrespondingSourceObject: {fileID: 0}
  m_PrefabInstance: {fileID: 0}
  m_PrefabAsset: {fileID: 0}
  m_Name: PhysicsManager
  m_TargetType:
    m_NativeTypeID: 55
    m_ManagedTypePPtr: {fileID: 0}
    m_ManagedTypeFallback: 
  m_Properties:
  - target: {fileID: 0}
    propertyPath: m_Gravity.x
    value: 0
    objectReference: {fileID: 0}
  - target: {fileID: 0}
    propertyPath: m_Gravity.y
    value: -9.81
    objectReference: {fileID: 0}
  - target: {fileID: 0}
    propertyPath: m_Gravity.z
    value: 0
    objectReference: {fileID: 0}
  - target: {fileID: 0}
    propertyPath: m_DefaultMaterial
    value: 
    objectReference: {fileID: 0}
  - target: {fileID: 0}
    propertyPath: m_BounceThreshold
    value: 2
    objectReference: {fileID: 0}
  - target: {fileID: 0}
    propertyPath: m_DefaultMaxDepenetrationVelocity
    value: 10
    objectReference: {fileID: 0}
  - target: {fileID: 0}
    propertyPath: m_SleepThreshold
    value: 0.005
    objectReference: {fileID: 0}
  - target: {fileID: 0}
    propertyPath: m_DefaultContactOffset
    value: 0.01
    objectReference: {fileID: 0}
  - target: {fileID: 0}
    propertyPath: m_DefaultSolverIterations
    value: 6
    objectReference: {fileID: 0}
  - target: {fileID: 0}
    propertyPath: m_DefaultSolverVelocityIterations
    value: 1
    objectReference: {fileID: 0}
  - target: {fileID: 0}
    propertyPath: m_QueriesHitBackfaces
    value: 0
    objectReference: {fileID: 0}
  - target: {fileID: 0}
    propertyPath: m_QueriesHitTriggers
    value: 1
    objectReference: {fileID: 0}
  - target: {fileID: 0}
    propertyPath: m_EnableAdaptiveForce
    value: 0
    objectReference: {fileID: 0}
  - target: {fileID: 0}
    propertyPath: m_ClothInterCollisionDistance
    value: 0.1
    objectReference: {fileID: 0}
  - target: {fileID: 0}
    propertyPath: m_ClothInterCollisionStiffness
    value: 0.2
    objectReference: {fileID: 0}
  - target: {fileID: 0}
    propertyPath: m_ContactsGeneration
    value: 1
    objectReference: {fileID: 0}
  - target: {fileID: 0}
    propertyPath: m_LayerCollisionMatrix.Array.size
    value: 32
    objectReference: {fileID: 0}
  - target: {fileID: 0}
    propertyPath: m_LayerCollisionMatrix.Array.data[0]
    value: 4294967295
    objectReference: {fileID: 0}
  - target: {fileID: 0}
    propertyPath: m_LayerCollisionMatrix.Array.data[1]
    value: 4294967295
    objectReference: {fileID: 0}
  - target: {fileID: 0}
    propertyPath: m_LayerCollisionMatrix.Array.data[2]
    value: 4294967295
    objectReference: {fileID: 0}
  - target: {fileID: 0}
    propertyPath: m_LayerCollisionMatrix.Array.data[3]
    value: 4294967295
    objectReference: {fileID: 0}
  - target: {fileID: 0}
    propertyPath: m_LayerCollisionMatrix.Array.data[4]
    value: 4294967295
    objectReference: {fileID: 0}
  - target: {fileID: 0}
    propertyPath: m_LayerCollisionMatrix.Array.data[5]
    value: 4294967295
    objectReference: {fileID: 0}
  - target: {fileID: 0}
    propertyPath: m_LayerCollisionMatrix.Array.data[6]
    value: 4294967295
    objectReference: {fileID: 0}
  - target: {fileID: 0}
    propertyPath: m_LayerCollisionMatrix.Array.data[7]
    value: 4294967295
    objectReference: {fileID: 0}
  - target: {fileID: 0}
    propertyPath: m_LayerCollisionMatrix.Array.data[8]
    value: 4294967295
    objectReference: {fileID: 0}
  - target: {fileID: 0}
    propertyPath: m_LayerCollisionMatrix.Array.data[9]
    value: 4294967295
    objectReference: {fileID: 0}
  - target: {fileID: 0}
    propertyPath: m_LayerCollisionMatrix.Array.data[10]
    value: 4294967295
    objectReference: {fileID: 0}
  - target: {fileID: 0}
    propertyPath: m_LayerCollisionMatrix.Array.data[11]
    value: 4294967295
    objectReference: {fileID: 0}
  - target: {fileID: 0}
    propertyPath: m_LayerCollisionMatrix.Array.data[12]
    value: 4294967295
    objectReference: {fileID: 0}
  - target: {fileID: 0}
    propertyPath: m_LayerCollisionMatrix.Array.data[13]
    value: 4294967295
    objectReference: {fileID: 0}
  - target: {fileID: 0}
    propertyPath: m_LayerCollisionMatrix.Array.data[14]
    value: 4294967295
    objectReference: {fileID: 0}
  - target: {fileID: 0}
    propertyPath: m_LayerCollisionMatrix.Array.data[15]
    value: 4294967295
    objectReference: {fileID: 0}
  - target: {fileID: 0}
    propertyPath: m_LayerCollisionMatrix.Array.data[16]
    value: 4294967295
    objectReference: {fileID: 0}
  - target: {fileID: 0}
    propertyPath: m_LayerCollisionMatrix.Array.data[17]
    value: 4294967295
    objectReference: {fileID: 0}
  - target: {fileID: 0}
    propertyPath: m_LayerCollisionMatrix.Array.data[18]
    value: 4294967295
    objectReference: {fileID: 0}
  - target: {fileID: 0}
    propertyPath: m_LayerCollisionMatrix.Array.data[19]
    value: 4294967295
    objectReference: {fileID: 0}
  - target: {fileID: 0}
    propertyPath: m_LayerCollisionMatrix.Array.data[20]
    value: 4294967295
    objectReference: {fileID: 0}
  - target: {fileID: 0}
    propertyPath: m_LayerCollisionMatrix.Array.data[21]
    value: 4294967295
    objectReference: {fileID: 0}
  - target: {fileID: 0}
    propertyPath: m_LayerCollisionMatrix.Array.data[22]
    value: 4294967295
    objectReference: {fileID: 0}
  - target: {fileID: 0}
    propertyPath: m_LayerCollisionMatrix.Array.data[23]
    value: 4294967295
    objectReference: {fileID: 0}
  - target: {fileID: 0}
    propertyPath: m_LayerCollisionMatrix.Array.data[24]
    value: 4294967295
    objectReference: {fileID: 0}
  - target: {fileID: 0}
    propertyPath: m_LayerCollisionMatrix.Array.data[25]
    value: 4294967295
    objectReference: {fileID: 0}
  - target: {fileID: 0}
    propertyPath: m_LayerCollisionMatrix.Array.data[26]
    value: 4294967295
    objectReference: {fileID: 0}
  - target: {fileID: 0}
    propertyPath: m_LayerCollisionMatrix.Array.data[27]
    value: 4294967295
    objectReference: {fileID: 0}
  - target: {fileID: 0}
    propertyPath: m_LayerCollisionMatrix.Array.data[28]
    value: 4294967295
    objectReference: {fileID: 0}
  - target: {fileID: 0}
    propertyPath: m_LayerCollisionMatrix.Array.data[29]
    value: 4294967295
    objectReference: {fileID: 0}
  - target: {fileID: 0}
    propertyPath: m_LayerCollisionMatrix.Array.data[30]
    value: 4294967295
    objectReference: {fileID: 0}
  - target: {fileID: 0}
    propertyPath: m_LayerCollisionMatrix.Array.data[31]
    value: 4294967295
    objectReference: {fileID: 0}
  - target: {fileID: 0}
    propertyPath: m_AutoSimulation
    value: 1
    objectReference: {fileID: 0}
  - target: {fileID: 0}
    propertyPath: m_AutoSyncTransforms
    value: 0
    objectReference: {fileID: 0}
  - target: {fileID: 0}
    propertyPath: m_ReuseCollisionCallbacks
    value: 1
    objectReference: {fileID: 0}
  - target: {fileID: 0}
    propertyPath: m_ClothInterCollisionSettingsToggle
    value: 0
    objectReference: {fileID: 0}
  - target: {fileID: 0}
    propertyPath: m_ClothGravity.x
    value: 0
    objectReference: {fileID: 0}
  - target: {fileID: 0}
    propertyPath: m_ClothGravity.y
    value: -9.81
    objectReference: {fileID: 0}
  - target: {fileID: 0}
    propertyPath: m_ClothGravity.z
    value: 0
    objectReference: {fileID: 0}
  - target: {fileID: 0}
    propertyPath: m_ContactPairsMode
    value: 0
    objectReference: {fileID: 0}
  - target: {fileID: 0}
    propertyPath: m_BroadphaseType
    value: 0
    objectReference: {fileID: 0}
  - target: {fileID: 0}
    propertyPath: m_WorldBounds.m_Center.x
    value: 0
    objectReference: {fileID: 0}
  - target: {fileID: 0}
    propertyPath: m_WorldBounds.m_Center.y
    value: 0
    objectReference: {fileID: 0}
  - target: {fileID: 0}
    propertyPath: m_WorldBounds.m_Center.z
    value: 0
    objectReference: {fileID: 0}
  - target: {fileID: 0}
    propertyPath: m_WorldBounds.m_Extent.x
    value: 250
    objectReference: {fileID: 0}
  - target: {fileID: 0}
    propertyPath: m_WorldBounds.m_Extent.y
    value: 250
    objectReference: {fileID: 0}
  - target: {fileID: 0}
    propertyPath: m_WorldBounds.m_Extent.z
    value: 250
    objectReference: {fileID: 0}
  - target: {fileID: 0}
    propertyPath: m_WorldSubdivisions
    value: 8
    objectReference: {fileID: 0}
  - target: {fileID: 0}
    propertyPath: m_FrictionType
    value: 0
    objectReference: {fileID: 0}
  - target: {fileID: 0}
    propertyPath: m_EnableEnhancedDeterminism
    value: 0
    objectReference: {fileID: 0}
  - target: {fileID: 0}
    propertyPath: m_EnableUnifiedHeightmaps
    value: 1
    objectReference: {fileID: 0}
  - target: {fileID: 0}
    propertyPath: m_SolverType
    value: 0
    objectReference: {fileID: 0}
  - target: {fileID: 0}
    propertyPath: m_DefaultMaxAngularSpeed
    value: 7
    objectReference: {fileID: 0}
  m_ExcludedProperties: []
